…
Part B

Use augment to get predictions. Look at the predictions.

test_preds <- log_model %>% augment(bivariate_test)

test_preds 
## # A tibble: 710 x 6
##        A     B Class .pred_class .pred_One .pred_Two
##    <dbl> <dbl> <fct> <fct>           <dbl>     <dbl>
##  1  742.  68.8 One   One           0.730      0.270 
##  2  709.  50.4 Two   Two           0.491      0.509 
##  3 1006.  89.9 One   One           0.805      0.195 
##  4 1983. 112.  Two   Two           0.431      0.569 
##  5 1698.  81.0 Two   Two           0.169      0.831 
##  6  948.  98.9 One   One           0.900      0.0996
##  7  751.  54.8 One   One           0.521      0.479 
##  8 1254.  72.2 Two   Two           0.347      0.653 
##  9 4243. 136.  One   Two           0.00568    0.994 
## 10  713.  88.2 One   One           0.910      0.0898
## # ... with 700 more rows
…
