…
Number of sales in any January

Number of sales in 2020

Number of sales on January 2020

Number of sales on your birthday (or favorite day)

Number of sales on Wednesday (or your favorite day of the week)

library(lubridate)

ccao %>% select(`Sale Date`)

## # A tibble: 678,656 x 1
##    `Sale Date`
##    <chr>      
##  1 <NA>       
##  2 <NA>       
##  3 <NA>       
##  4 <NA>       
##  5 <NA>       
##  6 <NA>       
##  7 <NA>       
##  8 <NA>       
##  9 <NA>       
## 10 <NA>       
## # ... with 678,646 more rows
…
